2bd4e08a007928398d19f8e7d27d56ce eqbpdtlf12bparrc12.cnf
a9ee9e05b6c91264a3c99d8e161ea061 eqbpdtlf14spdtlf14.cnf
0202cfc6aefbc20cab0115eb2c9fa7a2 eqsparrc12bpdtlf12.cnf
9567e110a4a81a63a3adbdc82ba68ab4 cruxmiter32seed4.cnf
08374c51a6ade60e37355ffc5899e269 cruxmiter28seed8.cnf
08bbe02360d9d5089e2b79ac91aafe54 eqbpdtlf14spctbk14.cnf
30ea1f64c5d32703e73aa427b598938b eqbpwtrc10spctbk10.cnf
17bcee53cfe99db3354eb84a1e25d8b5 eqbparrc18spwtrc18.cnf
e25d66a5088b51ef9ffafd1e75ef6d05 eqbpdtlf16spdtlf16.cnf
8ef10765fdfc175d9267416680654c11 eqbpwtcl10spwtcl10.cnf
255925313179df53c75b12457002ca94 eqspctbk14sparcl14.cnf
2852063df85359c5e8ece78db933fbba eqsparcl10bpwtrc10.cnf
33035ab76a04c1fff0509bf42afd8214 eqbpdtlf14bpwtcl14.cnf
1e5721d779ca98dd2e820c307b22c773 eqsparrc16spwtcl16.cnf
cc1bb72f86533459a277eef5c204ebc9 eqbpdtlf18sparcl18.cnf
de2ea38cf89c970c71b3cac0670dbab1 cruxmiter29seed9.cnf
d1741f2d3e5a2c912a6eb760be42afd6 eqbpwtrc10bpdtlf10.cnf
4dbc936d50d9e5cfe3e3ce8d7bf7ed5c cruxmiter29seed4.cnf
a2efae968a041aa7dee52d2e24268a63 eqspwtcl14bpwtcl14.cnf
f71d6afc07ab83ba4999f8f06680ee99 eqspwtrc16bparrc16.cnf
95d79f414473bb712a01c6316a6f3a1a eqbparrc12spctbk12.cnf
9047a275c5e691d74d55abc675208d4d eqsparcl12bpwtrc12.cnf
40134ce134de1218d565f65d94694466 eqsparrc14spctbk14.cnf
8d5e090299dd89a67f1c71f5c6755c09 eqspctbk14spwtcl14.cnf
53484c4987f7517ba3ef2578aed1d4ce eq2csparrc162cbpwtcl16.cnf
beb044c3f5d30be08deefd4b72f9742e eqspctbk12bpwtrc12.cnf
0cae32a9677cbbf137926cf02ebb03eb eqbparrc14spwtcl14.cnf
fc39e7273d5f0f3c77bd283e55e4b7a0 eqspdtlf14bpwtrc14.cnf
